﻿    Протокол связи Casio fx-7700GB
================================================================================
Этот документ описывает протокол, использующийся для связи калькулятора
Casio fx-7700GB c персональным компьютером (или другим калькулятором,
хост-устройством и т.п.).


    Физический уровень
================================================================================
Разъем связи калькулятора               аудиогнездо 2,5 мм
Интерфейс передачи данных               UART
Размер байта                            8 бит
Бит четности по умолчанию               нет (none)
Стоп-биты от калькулятора               2
Стоп-биты на калькулятор                1
Скорость обмена по умолчанию            9600 бод/с
Электрический уровень 1, High           5 В (TTL High)
Электрический уровень 0, Low            0 В (TTL Low)
Стандартный таймаут ответа              2000 мс
Стандартный таймаут разрыва пакета      100 мс


Разъем связи калькулятора
================================================================================
                 ______ ______ _______
                /  Tx  |  Rx  |  Gnd  |[ Корпус вилки ]
                \______|______|_______|[    2,5 мм    ]

Tx  - передача данных от калькулятора,
Rx  - прием данных калькулятором,
Gnd - общий.


    Типы данных
================================================================================
Используется порядок байт Big-Endian.
u8      uint8_t     unsigned char
u16     uint16_t    unsigned short int
u32     uint32_t    unsigned long int
i8      int8_t      signed char
i16     int16_t     signed short int
i32     int32_t     signed long int
================================================================================


    Сокращения
================================================================================
Сокращение  Значение
================================================================================
    ИС      Инициирующая сторона
    ПС      Принимающая сторона
    ПК      Персональный компьютер
    КС      Контрольная сумма
================================================================================


    Контрольная сумма
================================================================================
Контрольная сумма используется для пакетов, состоящих из более чем 1 байта.
КС вычисляется следующим образом: суммируются байты пакета, за исключением
первого (т.к. первый байт всегда одинаков - CASCOM_SIGNATURE),
к сумме добавляется 0xFF, полученное значение инвертируется:

               Checksum  =  not((sum bytes 1...Len) + FF).

2 вариант: берется отрицательное значение суммы байт пакета, за исключением
первого:

                   Checksum  =  -(sum bytes 1...Len).


    Магические числа
================================================================================
    CASCOM_REQUEST      0x16
    CASCOM_PRESENT      0x13
    CASCOM_CONFIRM      0x06
    CASCOM_BADSUMM      0x2B
    CASCOM_EXISTS       0x21
    CASCOM_SIGNATURE    0x3A
    CASCOM_PACKET_DSC   0x50
    CASCOM_ONEPROG      0x31
    CASCOM_ALLPROG      0x5A
    CASCOM_PROGEND      0xFF


    Константы
================================================================================
    Режимы вычислений калькулятора для программы
    --------------------------------------------
    CASCOM_PROGMODE_COMP    0x00
    CASCOM_PROGMODE_SD1     0x10
    CASCOM_PROGMODE_LR1     0x20
    CASCOM_PROGMODE_BASEN   0x40

    Маски полей байта "режим вычислений"
    --------------------------------------------
    CASCOM_SDATA_MASK       0x02
    CASCOM_SGRAPH_MASK      0x80
    CASCOM_PROGMODE_MASK    0x70


    Описание сеанса связи
================================================================================
Связь устанавливается инициирующей стороной, т.е. той которая передает данные.
Таким образом, если передаются данные с калькулятора на ПК, калькулятор
выступает в роли ИС, а ПК в роли ПС. При обратном направлении передачи данных
роли меняются.

Связь осуществляетя сеансами. Условно сеанс можно разбить на раунды.
Раундом будем называть последовательность типа "запрос/пакет от ИС -
подтверждение от ПС". В зависимости от направления передачи данных возможен
некоторый разброс в таймингах, но консктрукция сеанса остается одинаковой. 

Передача одной программы происходит за 3 раунда:

                            1 -- 2 -- [д] -- 3.1.

Передача всех программ происходит за 4 раунда:

                         1 -- 2 -- [д] -- 3.2 -- 4.


Раунд 1 - установка связи
================================================================================
ИС передает запрос - байт CASCOM_REQUEST.
В ответ ПС должна передать байт CASCOM_PRESENT (40 мс, таймаут 2 с).


Раунд 2 - пакет описания данных
================================================================================
ИС передает пакет из 40 байт.
В ответ ПС должна передать байт CASCOM_CONFIRM (40 мс, таймаут 2 с).
Далее следует раунд 3.
Если ПС - калькулятор, то может случиться, что в ответ будет передано CASCOM_EXISTS.
Это значит, что передаваемые данные предназначены для записи в область, которая
уже занята другими данными. В этом случае за раундом 2 следует дополнительный раунд,
после которого - раунд 3.

    Структура пакета описания данных (раунд 2, передается ИС)
================================================================================
#       Данные     Значение     Описание
                HEX     ASCII
================================================================================
0       u8      3A      :       CASCOM_SIGNATURE
1       u8      50      P       Символ "P"
2       u8      31      1       Символ "1" - если идет передача одной программы
                5A      Z       Символ "Z" - если идет передача всех программ
3       u8      00              *Reserved
4       u16                     Количество байт данных программ, DL+2
6       u8                      Режим вычислений калькулятора для программы, биты
                                    1   - режим S-data: 0/1 = NON/STO;
                                    4-6 - режим вычислений, значения:
                                            0 = Comp,
                                            1 = SD,
                                            2 = Reg,
                                            4 = Base-N;
                                    7   - режим S-graph: 0/1 = NON/DRAW.
7       u8      00              *Reserved
8       u8[12]  FF              Имя (?)
20      u8      FF
        ...
38      u8      FF
39      u8                      Контрольная сумма байт 1 - 38
================================================================================


Дополнительный раунд - подтверждение
================================================================================
ИС передает байт CASCOM_CONFIRM, разрешая калькулятору перезапись.
В ответ ПС должна передать байт CASCOM_CONFIRM (40 мс, таймаут 2 с).


Раунд 3.1 - передача данных одной программы
================================================================================
ИС передает пакет с данными одной программы. Пакет начинается с байта
CASCOM_SIGNATURE. Далее следуют данные программы, оканчивающиеся байтом
0xFF (конец программы). Последним передается байт КС.
В ответ ПС должна передать байт CASCOM_CONFIRM (40 мс, таймаут 2 с).
На этом сеанс связи завершается.

    Структура пакета данных одной программы (раунд 3.1, передается ИС)
================================================================================
#       Данные     Значение     Описание
                HEX     ASCII
================================================================================
0       u8      3A      :       CASCOM_SIGNATURE
1       u8                      Байт 0 массива данных
        ...
DL      u8                      Байт DL-1 массива данных
DL+1    u8                      Контрольная сумма байт 1 - DL
================================================================================
Примечание. Массив байт содержит данные программы, в конце завершается байтом 0xFF.


Раунд 3.2 - передача метаданных всех программ
================================================================================
ИС передает пакет с метаданными программ (192 байта). Пакет начинается с байта
CASCOM_SIGNATURE. Далее следуют блоки по 5 байт метаданных всех программ (38 шт),
которые следуют в естественном порядке, т.е. сначала идут данные программы 0,
затем 1, ..., 9, A, B, ..., Z, <r>, <theta>. Со смещением в 1 байт блок
содержит размер массива данных соответствующей программы, включая
завершающий байт 0xFF. Остальные байты блока - 0. Последним передается байт КС.
В ответ ПС должна передать байт CASCOM_CONFIRM (40 мс, таймаут 2 с).

    Структура пакета метаданных всех программ (раунд 3.2, передается ИС)
================================================================================
#       Данные     Значение     Описание
                HEX     ASCII
================================================================================
0       u8      3A      :       CASCOM_SIGNATURE
1       u8      00              *Reserved
2       u16                     Количество байт данных программы 0,
                                включая завершающий байт 0xFF
4       u8                      Режим вычислений калькулятора для программы
5       u8      00              *Reserved
6       u8      00              *Reserved
7       u16                     Количество байт данных программы 1,
                                включая завершающий байт 0xFF
9       u8                      Режим вычислений калькулятора для программы
10      u8      00              *Reserved
        ...
186     u8      00              *Reserved
187     u16                     Количество байт данных программы <theta>,
                                включая завершающий байт 0xFF
189     u8                      Режим вычислений калькулятора для программы
190     u8      00              *Reserved

191     u8                      Контрольная сумма байт 1 - 190
================================================================================


Раунд 4 - передача данных всех программ
================================================================================
ИС передает пакет с данными всех программ.
В ответ ПС должна передать байт CASCOM_CONFIRM (40 мс, таймаут 2 с).
На этом сеанс связи завершается.

    Структура пакета данных всех программ (раунд 4, передается ИС)
================================================================================
#       Данные     Значение     Описание
                HEX     ASCII
================================================================================
0       u8      3A      :       CASCOM_SIGNATURE
1       u8                      Байт 0 массива данных
        ...
DL      u8                      Байт DL-1 массива данных
DL+1    u8                      Контрольная сумма байт 1 - DL
================================================================================
Примечание. Массив байт содержит данные всех программ, которые следуют
в естественном порядке, т.е. сначала идут данные программы 0,
затем 1, ..., 9, A, B, ..., Z, <r>, <theta>. После каждой программы следует
завершающий байт 0xFF. Если программа пустая (0 байт), то передается только
завершающий байт 0xFF.




    Примеры запросов и ответов на них
================================================================================


